 0.109999999403953552E-01 0.270000007003545761E-01 0.509999990463256836E-01 0.750000029802322388E-01 0.101000003516674042 0.127000004053115845 0.155000001192092896 0.185000002384185791 0.218999996781349182 0.257999986410140991 0.301999986171722412 0.351000010967254639 0.405000001192092896 0.460000008344650269 0.515999972820281982 0.574000000953674316 0.630999982357025146 0.688000023365020752 0.744000017642974854 0.796000003814697266 0.842000007629394531 0.884000003337860107 0.921999990940093994 0.954999983310699463 0.980000019073486328 0.992999970912933350 1.00000000000000000
 2110 2270 2510 2750 3010 3270 3550 3850 4190 4580 5020 5510 6050 6600 7160 7740 8310 8880 9440 9960 10420 10840 11220 11550 11800 11930 12000
 0.1099999994E-01 0.2700000070E-01 0.5099999905E-01 0.7500000298E-01 0.1010000035 0.1270000041 0.1550000012 0.1850000024 0.2189999968 0.2579999864 0.3019999862 0.3510000110 0.4050000012 0.4600000083 0.5159999728 0.5740000010 0.6309999824 0.6880000234 0.7440000176 0.7960000038 0.8420000076 0.8840000033 0.9219999909 0.9549999833 0.9800000191 0.9929999709 1.000000000
