 7.20470678536655651 7.62060705532877591 8.11231190425979953 8.46128928345745379 8.70830103955573698 8.88293296535797161 9.00632642270455008 9.09348740295916258 9.15504225127716076 9.20090094218868870 9.24365235184222023 9.28908130172752422 9.33736502856952910 9.38866395297885958 9.44318706142657049 9.50112234385998811 9.56269582455331246 9.62812264688046682 9.69765702814939878 9.77154462163376891 9.85006833667808124 9.93237138046483459 10.0122715471832890 10.0898305744648837 10.1651227332001266 10.2382071591416910 10.3091543424230760 10.3780218231663213 10.4448712758175297 10.5097608924936061 10.5727484380405912 10.6338885865286308 10.6932347867263502 10.7508418697006434 10.8067577085565620 10.8610313612331435 10.9137134914268401 10.9648499712484977 11.0144847119437941 11.0626632950972290 11.1094258541209392 11.1548171776416272 11.1981897609864287 11.2374280229355854 11.2729271670635089 11.3050425167794550 11.3340975921553202 11.3603823508224728 11.3841630433357111 11.4056762559911284 11.4251390573863798 11.4427476368146266 11.4586769894178406 11.4730871237613297 11.4861252090511528 11.4979412691784333 11.5079556386967710 11.5129254649702286
 6.94777453139256007 7.41265692034766666 7.86645947979428772 8.28680059385862577 8.58479516150659450 8.79561700245685429 8.94462969403125996 9.04990691283185633 9.12426482711816078 9.17797159673292384 9.22227664701545535 9.26636682678487134 9.31322316514852666 9.36301449077419434 9.41592550720271504 9.47215470264328019 9.53190908420664940 9.59540923571688964 9.66288983751493191 9.73460082489158296 9.81080647915592508 9.89121985857145702 9.97232146382406270 10.0510510608240864 10.1274766538325061 10.2016649461709079 10.2736807507823826 10.3435880827946995 10.4114465494919255 10.4773160841555679 10.5412546652670986 10.6033185122846110 10.6635616866274905 10.7220383282134968 10.7787997891286018 10.8338945348948528 10.8873724263299927 10.9392817313376689 10.9896673415961459 11.0385740035205124 11.0860445746090832 11.1321215158812841 11.1765034693140279 11.2178088919610062 11.2551775949995481 11.2889848419214829 11.3195700544673876 11.3472399714888965 11.3722726970790919 11.3949196496634197 11.4154076566887532 11.4339433471005023 11.4507123131162345 11.4658820565895851 11.4796061664062421 11.4920332391147930 11.5029484539376021 11.5079556386967710 11.5129254649702286
 0.135280771437260056 0.264833957135085729 0.422556292013525792 0.530415181741607955 0.602416935126395159 0.650528042988733679 0.682951899178237842 0.705018746299163279 0.720169543756230657 0.731218292364792966 0.741331775983400276 0.751878664799176311 0.762859543841498344 0.774264672451994596 0.786087808113960840 0.798309611063436342 0.810909438131856342 0.823853687998254092 0.837104652817156181 0.850609569947384569 0.864307685837262252 0.877938223030243603 0.890457050791541027 0.901935821463918708 0.912445079056861452 0.922050073298710693 0.930814387410014987 0.938796748736520192 0.946053240789356931 0.952636438410503272 0.958595838876205697 0.963977704219200260 0.968825387926609660 0.973179632531411154 0.977078066152869629 0.980555996986284706 0.983646493871143224 0.986380121329766157 0.988785289715892191 0.990888544678918626 0.992714361730049677 0.994285683871200088 0.995604171532723181 0.996644570416254205 0.997462337122899778 0.998102027776888612 0.998599519835171145 0.998983618751072444 0.999277536457033988 0.999499867392710128 0.999665577070491973 0.999786664219210031 0.999872728117866649 0.999931464054831576 0.999969024992249600 0.999990329007965806 0.999998937236405094 1.00000000000000000
 0.676403857186300278E-01 0.200057364286172878 0.343695124574305733 0.476485736877566901 0.566416058434001557 0.626472489057564363 0.666739971083485816 0.693985322738700505 0.712594145027696912 0.725693918060511756 0.736275034174096676 0.746605220391288293 0.757369104320337327 0.768562108146746414 0.780176240282977718 0.792198709588698646 0.804609524597646342 0.817381563065055161 0.830479170407705136 0.843857111382270375 0.857458627892323411 0.871122954433752872 0.884197636910892371 0.896196436127729923 0.907190450260390024 0.917247576177786073 0.926432230354362840 0.934805568073267645 0.942424994762938617 0.949344839599930101 0.955616138643354485 0.961286771547702923 0.966401546072904960 0.971002510229010407 0.975128849342140391 0.978817031569577223 0.982101245428713909 0.985013307600454691 0.987582705522829229 0.989836917197405408 0.991801453204484096 0.993500022800624882 0.994944927701961634 0.996124370974488693 0.997053453769576992 0.997782182449894250 0.998350773806029879 0.998791569293121739 0.999130577604053216 0.999388701924872058 0.999582722231601051 0.999726120644851002 0.999829696168538340 0.999902096086349168 0.999950244523540643 0.999979677000107703 0.999994633122185395 0.999998937236405094 1.00000000000000000
 95554991 95624396 95753944 95893231 96025711 96141206 96235867 96310132 96366619 96411021 94475227 94480032 94485385 94491361 94498059 94505587 94514081 94523699 94534634 94547118 94561437 94577701 94594824 94612807 94631651 94651350 94671901 94693293 94715517 94738557 94762399 94787023 94812408 94838533 94865372 94892898 94921084 94949901 94979317 95009301 95039818 95070837 95101822 95131034 95158469 95184142 95208090 95230362 95251023 95270142 95287796 95304068 95319037 95332785 95345396 95356968 95366883 93423264
 95524499 95586098 95681247 95817527 95955386 96080939 96187077 96272191 96337941 96388565 94473041 94477603 94482676 94488335 94494664 94501769 94509769 94518812 94529072 94540761 94554137 94569401 94586092 94603641 94622051 94641320 94661443 94682413 94704219 94726850 94750290 94774522 94799527 94825282 94851765 94878948 94906805 94935309 94964427 94994129 95024381 95055152 95086162 95116285 95144630 95171203 95196029 95219153 95240631 95260531 95278926 95295896 95311523 95325886 95339070 95351165 95361913 95366883 93423264
 0.1345750038E-01 0.2039800026E-01 0.3335279971E-01 0.4728149995E-01 0.6052950025E-01 0.7207900286E-01 0.8154509962E-01 0.8897159994E-01 0.9462030232E-01 0.9906049818E-01 0.1033869982 0.1081919968 0.1135450006 0.1195209995 0.1262190044 0.1337469965 0.1422410011 0.1518590003 0.1627939939 0.1752779931 0.1895969957 0.2058610022 0.2229840010 0.2409670055 0.2598110139 0.2795099914 0.3000609875 0.3214530051 0.3436770141 0.3667170107 0.3905589879 0.4151830077 0.4405680001 0.4666930139 0.4935320020 0.5210580230 0.5492439866 0.5780609846 0.6074770093 0.6374610066 0.6679779887 0.6989970207 0.7299820185 0.7591940165 0.7866290212 0.8123019934 0.8362500072 0.8585219979 0.8791829944 0.8983020186 0.9159560204 0.9322280288 0.9471970201 0.9609450102 0.9735559821 0.9851279855 0.9950429797 1.000000000
 0.1040829998E-01 0.1656820066E-01 0.2608310059E-01 0.3971109912E-01 0.5349700153E-01 0.6605230272E-01 0.7666610181E-01 0.8517750353E-01 0.9175249934E-01 0.9681490064E-01 0.1012009978 0.1057630032 0.1108359993 0.1164949983 0.1228239983 0.1299290061 0.1379290074 0.1469720006 0.1572320014 0.1689209938 0.1822970062 0.1975609958 0.2142519951 0.2318010032 0.2502110004 0.2694799900 0.2896029949 0.3105730116 0.3323790133 0.3550100029 0.3784500062 0.4026820064 0.4276869893 0.4534420073 0.4799250066 0.5071079731 0.5349649787 0.5634689927 0.5925869942 0.6222890019 0.6525409818 0.6833119988 0.7143219709 0.7444450259 0.7727900147 0.7993630171 0.8241890073 0.8473129869 0.8687909842 0.8886910081 0.9070860147 0.9240559936 0.9396830201 0.9540460110 0.9672300220 0.9793249965 0.9900730252 0.9950429797 1.000000000
 0
