Read(999) !!   X  STG_CP_GEMV4     3    60     1  000000000       41148       0     0        0        0  E 64  X  5002  6500   100   100
Read(999) !!   X  STG_CP_GEMV4     3    60     1  000000000       41148       0     0        0        0  E 64  X  5002  6500   100   100
(Cvgd) ERROR in Cvgd_get_int, invalid key UNDE
(Cvgd) ERROR in Cvgd_get_int, invalid key UNDE
 Error with get_int detected and message printed above
 Error with get_int detected and message not printed above
ERROR: (vgd)  invalid key UNDEFINED KEY given to gd_get (int 1D)
ERROR: (vgd)  invalid key UNDEFINED KEY given to gd_get (int 1D)
 Error with get_int_1d detected and message printed above
 Error with get_int_1d detected and message not printed above
(Cvgd) ERROR in Cvgd_get_float, invalid key 'UNDE'
(Cvgd) ERROR in Cvgd_get_float, invalid key 'UNDE'
 Error with get_real detected and message printed above
 Error with get_real detected and message not printed above
ERROR: (vgd)  invalid key UNDEFINED KEY given to gd_get (real 1D)
ERROR: (vgd)  invalid key UNDEFINED KEY given to gd_get (real 1D)
 Error with get_real_1d detected and message printed above
 Error with get_real_1d detected and message not printed above
(Cvgd) ERROR in Cvgd_put_double, invalid key 'UNDE'
(Cvgd) ERROR in Cvgd_put_double, invalid key 'UNDE'
 Error with get_real8 detected and message printed above
 Error with get_real8 detected and message not printed above
ERROR: (vgd)  invalid key UNDEFINED KEY given to gd_get (real8 1D)
ERROR: (vgd)  invalid key UNDEFINED KEY given to gd_get (real8 1D)
 Error with get_real8_1d detected and message printed above
 Error with get_real8_1d detected and message not printed above
ERROR: (vgd)  invalid key UNDEFINED KEY given to gd_get (real8 3D)
ERROR: (vgd)  invalid key UNDEFINED KEY given to gd_get (real8 3D)
 Error with get_real8_3d detected and message printed above
 Error with get_real8_3d detected and message not printed above
ERROR: (vgd)  invalid key in call to get_char: UNDEFINED KEY
ERROR: (vgd)  invalid key in call to get_char: UNDEFINED KEY
 Error with get_char detected and message printed above
 Error with get_char detected but message not printed above
(Cvgd) ERROR in Cvgd_get_char, invalid key -> 'UNDE'
(Cvgd) ERROR in Cvgd_get_char, invalid key -> 'UNDE'
(Cvgd) ERROR in Cvgd_get_int, invalid key UNDE
(Cvgd) ERROR in Cvgd_get_int, invalid key UNDE
 Error with get_logical detected and message printed above
 Error with get_logical detected but message not printed above
