    1000.000014901161         1810.208037495613         2885.672841221094      
    4344.769790768623         5656.799376010895         6937.218904495239      
    8087.364435195923         9193.436205387115         10237.67769336700      
    11257.31885433197         12226.51124000549         13079.19859886169      
    13746.60611152649         14157.72438049316         14245.82004547119      
    14009.74750518799         13434.39579010010         12554.45957183838      
    11374.40204620361         9932.713508605957         8351.030349731445      
    6761.975288391113         5158.953666687012         3585.867881774902      
    2126.789093017578         964.5986557006836         341.1388397216797      
    0.000000000000000     
    0.000000000000000        7.3490012437105179E-004   3.0915911775082350E-003 
   8.5528781637549400E-003   1.5852507203817368E-002   2.5521762669086456E-002 
   3.6819949746131897E-002   5.0644051283597946E-002   6.7216031253337860E-002 
   8.8046513497829437E-002   0.1144436150789261        0.1472350209951401      
   0.1872804313898087        0.2354654371738434        0.2886772453784943      
   0.3469281792640686        0.4113950729370117        0.4786812663078308      
   0.5497199892997742        0.6230410933494568        0.6941621303558350      
   0.7594503164291382        0.8209630846977234        0.8781516551971436      
   0.9289771318435669        0.9681925177574158        0.9888227581977844      
    1.000000000000000     
     95545416     95654041     95812041     96049041     96286041     94484077 
     94509752     94537402     94567027     94600603     94639115     94682565 
     94730953     94784277     94838590     94893890     94951165     95007452 
     95063740     95119040     95170390     95215815     95257290     95294815 
     95327402     95352090     95364927     93423264
   1.2500000E-02   2.3362501E-02   3.9162502E-02   6.2862501E-02 
   8.6562499E-02   0.1122370       0.1379120       0.1655620     
   0.1951870       0.2287630       0.2672750       0.3107250     
   0.3591130       0.4124370       0.4667500       0.5220500     
   0.5793250       0.6356120       0.6919000       0.7472000     
   0.7985500       0.8439750       0.8854500       0.9229750     
   0.9555620       0.9802500       0.9930870        1.000000    
