  1.099999994039536E-002  2.700000070035458E-002  5.099999904632568E-002
  7.500000298023224E-002  0.101000003516674       0.127000004053116     
  0.155000001192093       0.185000002384186       0.218999996781349     
  0.257999986410141       0.301999986171722       0.351000010967255     
  0.405000001192093       0.460000008344650       0.515999972820282     
  0.574000000953674       0.630999982357025       0.688000023365021     
  0.744000017642975       0.796000003814697       0.842000007629395     
  0.884000003337860       0.921999990940094       0.954999983310699     
  0.980000019073486       0.992999970912933        1.00000000000000     
        2110        2270        2510        2750        3010        3270
        3550        3850        4190        4580        5020        5510
        6050        6600        7160        7740        8310        8880
        9440        9960       10420       10840       11220       11550
       11800       11930       12000
  1.1000000E-02  2.7000001E-02  5.0999999E-02  7.5000003E-02  0.1010000    
  0.1270000      0.1550000      0.1850000      0.2190000      0.2580000    
  0.3020000      0.3510000      0.4050000      0.4600000      0.5160000    
  0.5740000      0.6310000      0.6880000      0.7440000      0.7960000    
  0.8420000      0.8840000      0.9220000      0.9550000      0.9800000    
  0.9930000       1.000000    
