   7.20470678536656        7.62060705532878        8.11231190425980     
   8.46128928345745        8.70830103955574        8.88293296535797     
   9.00632642270455        9.09348740295916        9.15504225127716     
   9.20090094218869        9.24365235184222        9.28908130172752     
   9.33736502856953        9.38866395297886        9.44318706142657     
   9.50112234385999        9.56269582455331        9.62812264688047     
   9.69765702814940        9.77154462163377        9.85006833667808     
   9.93237138046483        10.0122715471833        10.0898305744649     
   10.1651227332001        10.2382071591417        10.3091543424231     
   10.3780218231663        10.4448712758175        10.5097608924936     
   10.5727484380406        10.6338885865286        10.6932347867264     
   10.7508418697006        10.8067577085566        10.8610313612331     
   10.9137134914268        10.9648499712485        11.0144847119438     
   11.0626632950972        11.1094258541209        11.1548171776416     
   11.1981897609864        11.2374280229356        11.2729271670635     
   11.3050425167795        11.3340975921553        11.3603823508225     
   11.3841630433357        11.4056762559911        11.4251390573864     
   11.4427476368146        11.4586769894178        11.4730871237613     
   11.4861252090512        11.4979412691784        11.5079556386968     
   11.5129254649702     
   7.41265692034767        7.86645947979429        8.28680059385863     
   8.58479516150659        8.79561700245685        8.94462969403126     
   9.04990691283186        9.12426482711816        9.17797159673292     
   9.22227664701546        9.26636682678487        9.31322316514853     
   9.36301449077419        9.41592550720272        9.47215470264328     
   9.53190908420665        9.59540923571689        9.66288983751493     
   9.73460082489158        9.81080647915593        9.89121985857146     
   9.97232146382406        10.0510510608241        10.1274766538325     
   10.2016649461709        10.2736807507824        10.3435880827947     
   10.4114465494919        10.4773160841556        10.5412546652671     
   10.6033185122846        10.6635616866275        10.7220383282135     
   10.7787997891286        10.8338945348949        10.8873724263300     
   10.9392817313377        10.9896673415961        11.0385740035205     
   11.0860445746091        11.1321215158813        11.1765034693140     
   11.2178088919610        11.2551775949995        11.2889848419215     
   11.3195700544674        11.3472399714889        11.3722726970791     
   11.3949196496634        11.4154076566888        11.4339433471005     
   11.4507123131162        11.4658820565896        11.4796061664062     
   11.4920332391148        11.5029484539376        11.5104405518335     
   11.5129254649702     
  0.000000000000000E+000  0.120977819446273       0.292479493296573     
  0.417799968726398       0.503949445116360       0.562404884697300     
  0.602148434015689       0.629342008607279       0.648076201065568     
  0.661769071023184       0.674324893465066       0.687440407222659     
  0.701118219315449       0.715347978712649       0.730123441345647     
  0.745421809071001       0.761218286181164       0.777471454669752     
  0.794134197694958       0.811139896822518       0.828411204004797     
  0.845617413552555       0.861435938033857       0.875951632258228     
  0.889249325253436       0.901408194730328       0.912506198111486     
  0.922615797856507       0.931806682647709       0.940144508759928     
  0.947691365419826       0.954505506198291       0.960641684254073     
  0.966151492931383       0.971082673205277       0.975480111545316     
  0.979385892054169       0.982838960571074       0.985875541224859     
  0.988529498494326       0.990832069737505       0.992812533545674     
  0.994473343438592       0.995783101993369       0.996812025521792     
  0.997616478505075       0.998241808315682       0.998724392269481     
  0.999093520073423       0.999372636772849       0.999580597778870     
  0.999732509896722       0.999840451144829       0.999914097836182     
  0.999961182434750       0.999987882162661       0.999998668511954     
   1.00000000000000     
  6.048890972313652E-002  0.206728656371423       0.355139731011485     
  0.460874706921379       0.533177164906830       0.582276659356494     
  0.615745221311484       0.638709104836423       0.654922636044376     
  0.668046982244125       0.680882650343862       0.694279313269054     
  0.708233099014049       0.722735710029148       0.737772625208324     
  0.753320047626082       0.769344870425458       0.785802826182355     
  0.802637047258738       0.819775550413658       0.837014308778676     
  0.853526675793206       0.868693785146043       0.882600478755832     
  0.895328759991882       0.906957196420907       0.917560997983996     
  0.927211240252108       0.935975595703818       0.943917937089877     
  0.951098435809058       0.957573595226182       0.963396588592728     
  0.968617083068330       0.973281392375297       0.977433001799742     
  0.981112426312621       0.984357250897966       0.987202519859592     
  0.989680784115915       0.991822301641589       0.993642938492133     
  0.995128222715980       0.996297563757581       0.997214252013433     
  0.997929143410378       0.998483100292581       0.998908956171452     
  0.999233078423136       0.999476617275860       0.999656553837796     
  0.999786480520776       0.999877274490506       0.999937640135466     
  0.999974532298705       0.999993275337307       0.999999334255977     
   1.00000000000000     
    95554991    95624396    95753944    95893231    96025711    96141206
    96235867    96310132    96366619    96411021    94475227    94480032
    94485385    94491361    94498059    94505587    94514081    94523699
    94534634    94547118    94561437    94577701    94594824    94612807
    94631651    94651350    94671901    94693293    94715517    94738557
    94762399    94787023    94812408    94838533    94865372    94892898
    94921084    94949901    94979317    95009301    95039818    95070837
    95101822    95131034    95158469    95184142    95208090    95230362
    95251023    95270142    95287796    95304068    95319037    95332785
    95345396    95356968    95366883    93423264
    95586098    95681247    95817527    95955386    96080939    96187077
    96272191    96337941    96388565    94473041    94477603    94482676
    94488335    94494664    94501769    94509769    94518812    94529072
    94540761    94554137    94569401    94586092    94603641    94622051
    94641320    94661443    94682413    94704219    94726850    94750290
    94774522    94799527    94825282    94851765    94878948    94906805
    94935309    94964427    94994129    95024381    95055152    95086162
    95116285    95144630    95171203    95196029    95219153    95240631
    95260531    95278926    95295896    95311523    95325886    95339070
    95351165    95361913    95369358    93423264
  1.3457500E-02  2.0398000E-02  3.3352800E-02  4.7281500E-02  6.0529500E-02
  7.2079003E-02  8.1545100E-02  8.8971600E-02  9.4620302E-02  9.9060498E-02
  0.1033870      0.1081920      0.1135450      0.1195210      0.1262190    
  0.1337470      0.1422410      0.1518590      0.1627940      0.1752780    
  0.1895970      0.2058610      0.2229840      0.2409670      0.2598110    
  0.2795100      0.3000610      0.3214530      0.3436770      0.3667170    
  0.3905590      0.4151830      0.4405680      0.4666930      0.4935320    
  0.5210580      0.5492440      0.5780610      0.6074770      0.6374610    
  0.6679780      0.6989970      0.7299820      0.7591940      0.7866290    
  0.8123020      0.8362500      0.8585220      0.8791830      0.8983020    
  0.9159560      0.9322280      0.9471970      0.9609450      0.9735560    
  0.9851280      0.9950430       1.000000    
  1.6568201E-02  2.6083101E-02  3.9711099E-02  5.3497002E-02  6.6052303E-02
  7.6666102E-02  8.5177504E-02  9.1752499E-02  9.6814901E-02  0.1012010    
  0.1057630      0.1108360      0.1164950      0.1228240      0.1299290    
  0.1379290      0.1469720      0.1572320      0.1689210      0.1822970    
  0.1975610      0.2142520      0.2318010      0.2502110      0.2694800    
  0.2896030      0.3105730      0.3323790      0.3550100      0.3784500    
  0.4026820      0.4276870      0.4534420      0.4799250      0.5071080    
  0.5349650      0.5634690      0.5925870      0.6222890      0.6525410    
  0.6833120      0.7143220      0.7444450      0.7727900      0.7993630    
  0.8241890      0.8473130      0.8687910      0.8886910      0.9070860    
  0.9240560      0.9396830      0.9540460      0.9672300      0.9793250    
  0.9900730      0.9975180       1.000000    
           0
