    70000.00000000000         85000.00000000000         92500.00000000000      
    100000.0000000000     
     41594464     41744464     41819464     39945888
    700.0000        850.0000        925.0000        1000.000    
